Tidymodels - 2 Demo: a predictive modelling case study
…
# define parameters range for tuning
grid_lambda <- grid_regular(penalty(), levels = 25)

# tune lambda
model_tune <- wf %>%
  tune_grid(resamples = data_folds, 
            grid = grid_lambda)

# show metrics average across folds
model_tune  %>%
  collect_metrics(summarize = TRUE)
## # A tibble: 50 × 7
##     penalty .metric .estimator  mean     n std_err .config              
##       <dbl> <chr>   <chr>      <dbl> <int>   <dbl> <chr>                
##  1 1   e-10 rmse    standard   2.48     15  0.142  Preprocessor1_Model01
##  2 1   e-10 rsq     standard   0.851    15  0.0143 Preprocessor1_Model01
##  3 2.61e-10 rmse    standard   2.48     15  0.142  Preprocessor1_Model02
##  4 2.61e-10 rsq     standard   0.851    15  0.0143 Preprocessor1_Model02
##  5 6.81e-10 rmse    standard   2.48     15  0.142  Preprocessor1_Model03
##  6 6.81e-10 rsq     standard   0.851    15  0.0143 Preprocessor1_Model03
##  7 1.78e- 9 rmse    standard   2.48     15  0.142  Preprocessor1_Model04
##  8 1.78e- 9 rsq     standard   0.851    15  0.0143 Preprocessor1_Model04
##  9 4.64e- 9 rmse    standard   2.48     15  0.142  Preprocessor1_Model05
## 10 4.64e- 9 rsq     standard   0.851    15  0.0143 Preprocessor1_Model05
## # ℹ 40 more rows
…
